#define orage_width 72
#define orage_height 64
static char orage_bits[] = {
 0x00,0x00,0x00,0x00,0x00,0x00,0x00,0x00,0x00,0x00,0x00,0xfe,0x01,0x00,0x00,
 0x00,0x00,0x00,0x00,0x00,0x03,0x03,0x00,0x00,0x00,0x00,0x00,0x00,0x00,0x01,
 0xe6,0x00,0x00,0x00,0x00,0x00,0x00,0x00,0x01,0x1c,0x01,0x00,0x00,0x00,0x00,
 0x00,0x8f,0x00,0x04,0x02,0x00,0x00,0x00,0x00,0x80,0xf1,0x00,0x00,0x02,0x00,
 0x00,0x00,0x00,0x40,0xc0,0x00,0x00,0x0e,0x00,0x00,0x00,0x00,0x20,0x40,0x00,
 0x00,0x30,0x00,0x00,0x00,0x00,0x30,0x40,0x00,0x00,0xc0,0x00,0x00,0x00,0x00,
 0x10,0x00,0x00,0x00,0x80,0x00,0x00,0x00,0x00,0x10,0x00,0x00,0x00,0x80,0xf0,
 0x03,0x7c,0x00,0x18,0x00,0x00,0x00,0x81,0x0c,0xc6,0x83,0x07,0x08,0x00,0x00,
 0x00,0x41,0x06,0xe8,0x00,0x0c,0x08,0x00,0x00,0x80,0x3f,0x03,0x30,0x00,0x08,
 0x08,0x00,0x0c,0x80,0x80,0x01,0x20,0x00,0x08,0x18,0x07,0x0c,0x40,0xc0,0x00,
 0x10,0x00,0x10,0xf0,0x06,0x1c,0x20,0x40,0x00,0x00,0x00,0x10,0x00,0x06,0x2c,
 0x1e,0x7f,0x00,0x00,0x00,0x10,0x00,0x08,0xc2,0x81,0x41,0x00,0x00,0x00,0x20,
 0x00,0x10,0x01,0x40,0x40,0x00,0x00,0x00,0x20,0x00,0xe0,0x00,0x20,0x80,0x00,
 0x00,0x00,0x20,0x00,0x00,0x00,0x20,0x00,0x00,0x00,0x00,0x20,0x00,0x00,0xf0,
 0x3f,0x00,0x00,0x00,0x00,0x20,0x00,0x00,0x1c,0x20,0x00,0x00,0x00,0x00,0x20,
 0x00,0x00,0x0e,0x40,0x00,0x00,0xc0,0x00,0x2c,0x00,0x00,0x03,0x80,0x00,0x00,
 0xc0,0x00,0x10,0x00,0x00,0x01,0x00,0x00,0x00,0xe0,0x00,0x20,0x00,0x00,0x01,
 0x00,0x00,0x00,0x30,0x00,0x60,0xc0,0x3f,0x01,0x00,0x00,0x08,0x30,0x00,0x40,
 0x60,0xc0,0x03,0x00,0x00,0x70,0x3c,0x00,0x44,0x18,0x00,0x1c,0x00,0x00,0x90,
 0x33,0x00,0x44,0x08,0x00,0x00,0x80,0x00,0x08,0xe0,0x00,0x44,0x0c,0x00,0x00,
 0x00,0x83,0x07,0xe0,0x00,0x42,0x04,0x00,0x00,0x00,0xfc,0x00,0xe0,0x80,0x41,
 0x04,0x00,0x00,0x00,0x80,0x01,0xc0,0x61,0x40,0x07,0x00,0x00,0x00,0x00,0x03,
 0xc0,0x1d,0x40,0x03,0x00,0x00,0x00,0x00,0x06,0xc0,0x01,0x40,0x03,0x00,0x00,
 0x00,0x00,0x0e,0x00,0x03,0x40,0x03,0x00,0x00,0x80,0x83,0x19,0x00,0x03,0x40,
 0x03,0x00,0x00,0x00,0x7c,0x70,0x00,0x03,0x40,0x04,0x00,0x00,0x00,0x00,0xe0,
 0x00,0x06,0x20,0x04,0x00,0x00,0x00,0x00,0x80,0x01,0x06,0x20,0x4c,0x00,0x00,
 0x00,0x00,0x00,0x03,0x06,0x30,0x38,0x00,0x00,0x00,0x00,0x00,0x06,0x0c,0x18,
 0x30,0x00,0x00,0x00,0x00,0xfc,0x0f,0x0c,0x08,0x20,0x00,0x00,0x00,0x00,0x18,
 0x00,0xcc,0x07,0x20,0x00,0x10,0x00,0x00,0x70,0x00,0x98,0x03,0x60,0x00,0x10,
 0x00,0x00,0xe0,0x00,0xd8,0x01,0x40,0x00,0x10,0x00,0x00,0x80,0xe1,0x7f,0x00,
 0x80,0x00,0x10,0x00,0x08,0x00,0xc3,0x01,0x00,0x00,0x07,0x3e,0x00,0x3c,0x18,
 0xc6,0x01,0x00,0x00,0x1e,0x2d,0x00,0x77,0x6c,0x0c,0x03,0x00,0x00,0xf8,0xd3,
 0x80,0xce,0xe7,0x1f,0x03,0x00,0x00,0x00,0x80,0x7f,0x00,0x80,0x01,0x06,0x00,
 0x00,0x00,0x00,0x00,0x00,0x00,0x03,0x06,0x00,0x00,0x00,0x00,0x00,0x00,0x00,
 0xe6,0x0f,0x00,0x00,0x00,0x00,0x00,0x00,0x00,0xcc,0x00,0x00,0x00,0x00,0x00,
 0x00,0x00,0x00,0xd8,0x01,0x00,0x00,0x00,0x00,0x00,0x00,0x00,0x30,0x01,0x00,
 0x00,0x00,0x00,0x00,0x00,0x00,0xe0,0x03,0x00,0x00,0x00,0x00,0x00,0x00,0x00,
 0xc0,0x03,0x00,0x00,0x00,0x00,0x00,0x00,0x00,0x00,0x07,0x00,0x00,0x00,0x00,
 0x00,0x00,0x00,0x00,0x00,0x00};
